[
    {
        "id": 1,
        "name": "personne",
        "category": "personne"
    },
    {
        "id": 2,
        "name": "vélo",
        "category": "vehicule"
    },
    {
        "id": 3,
        "name": "voiture",
        "category": "vehicule"
    },
    {
        "id": 4,
        "name": "moto",
        "category": "vehicule"
    },
    {
        "id": 5,
        "name": "avion",
        "category": "vehicule"
    },
    {
        "id": 6,
        "name": "bus",
        "category": "vehicule"
    },
    {
        "id": 7,
        "name": "train",
        "category": "vehicule"
    },
    {
        "id": 8,
        "name": "camion",
        "category": "vehicule"
    },
    {
        "id": 9,
        "name": "bateau",
        "category": "vehicule"
    },
    {
        "id": 10,
        "name": "feu de circulation",
        "category": "extérieur"
    },
    {
        "id": 11,
        "name": "bouche d'incendie",
        "category": "extérieur"
    },
    {
        "id": 12,
        "name": "Panneau de signalisation",
        "category": "extérieur"
    },
    {
        "id": 13,
        "name": "panneau stop",
        "category": "extérieur"
    },
    {
        "id": 14,
        "name": "parcmètre",
        "category": "extérieur"
    },
    {
        "id": 15,
        "name": "banc",
        "category": "extérieur"
    },
    {
        "id": 16,
        "name": "oiseau",
        "category": "animal"
    },
    {
        "id": 17,
        "name": "chat",
        "category": "animal"
    },
    {
        "id": 18,
        "name": "chien",
        "category": "animal"
    },
    {
        "id": 19,
        "name": "cheval",
        "category": "animal"
    },
    {
        "id": 20,
        "name": "mouton",
        "category": "animal"
    },
    {
        "id": 21,
        "name": "vache",
        "category": "animal"
    },
    {
        "id": 22,
        "name": "éléphant",
        "category": "animal"
    },
    {
        "id": 23,
        "name": "ours",
        "category": "animal"
    },
    {
        "id": 24,
        "name": "zebre",
        "category": "animal"
    },
    {
        "id": 25,
        "name": "giraffe",
        "category": "animal"
    },
    {
        "id": 26,
        "name": "chapeau",
        "category": "accessoires"
    },
    {
        "id": 27,
        "name": "sac à dos",
        "category": "accessoires"
    },
    {
        "id": 28,
        "name": "parapluie",
        "category": "accessoires"
    },
    {
        "id": 29,
        "name": "chaussure",
        "category": "accessoires"
    },
    {
        "id": 30,
        "name": "lunettes",
        "category": "accessoires"
    },
    {
        "id": 31,
        "name": "sac à main",
        "category": "accessoires"
    },
    {
        "id": 32,
        "name": "cravate",
        "category": "accessoires"
    },
    {
        "id": 33,
        "name": "valise",
        "category": "accessoires"
    },
    {
        "id": 34,
        "name": "frisbee",
        "category": "sport"
    },
    {
        "id": 35,
        "name": "skis",
        "category": "sport"
    },
    {
        "id": 36,
        "name": "snowboard",
        "category": "sport"
    },
    {
        "id": 37,
        "name": "balle",
        "category": "sport"
    },
    {
        "id": 38,
        "name": "cerf-volant",
        "category": "sport"
    },
    {
        "id": 39,
        "name": "batte de baseball",
        "category": "sport"
    },
    {
        "id": 40,
        "name": "gant de baseball",
        "category": "sport"
    },
    {
        "id": 41,
        "name": "skateboard",
        "category": "sport"
    },
    {
        "id": 42,
        "name": "planche de surf",
        "category": "sport"
    },
    {
        "id": 43,
        "name": "rackette de tenis",
        "category": "sport"
    },
    {
        "id": 44,
        "name": "bouteille",
        "category": "cuisine"
    },
    {
        "id": 45,
        "name": "assiette",
        "category": "cuisine"
    },
    {
        "id": 46,
        "name": "verre de vin",
        "category": "cuisine"
    },
    {
        "id": 47,
        "name": "tasse",
        "category": "cuisine"
    },
    {
        "id": 48,
        "name": "fourchette",
        "category": "cuisine"
    },
    {
        "id": 49,
        "name": "couteau",
        "category": "cuisine"
    },
    {
        "id": 50,
        "name": "cuillère",
        "category": "cuisine"
    },
    {
        "id": 51,
        "name": "bol",
        "category": "cuisine"
    },
    {
        "id": 52,
        "name": "banane",
        "category": "nourriture"
    },
    {
        "id": 53,
        "name": "pomme",
        "category": "nourriture"
    },
    {
        "id": 54,
        "name": "sandwich",
        "category": "nourriture"
    },
    {
        "id": 55,
        "name": "orange",
        "category": "nourriture"
    },
    {
        "id": 56,
        "name": "brocoli",
        "category": "nourriture"
    },
    {
        "id": 57,
        "name": "carotte",
        "category": "nourriture"
    },
    {
        "id": 58,
        "name": "hot dog",
        "category": "nourriture"
    },
    {
        "id": 59,
        "name": "pizza",
        "category": "nourriture"
    },
    {
        "id": 60,
        "name": "donut",
        "category": "nourriture"
    },
    {
        "id": 61,
        "name": "gateau",
        "category": "nourriture"
    },
    {
        "id": 62,
        "name": "chaise",
        "category": "meubles"
    },
    {
        "id": 63,
        "name": "canapé",
        "category": "meubles"
    },
    {
        "id": 64,
        "name": "plante",
        "category": "meubles"
    },
    {
        "id": 65,
        "name": "lit",
        "category": "meubles"
    },
    {
        "id": 66,
        "name": "miroir",
        "category": "meubles"
    },
    {
        "id": 67,
        "name": "table à manger",
        "category": "meubles"
    },
    {
        "id": 68,
        "name": "fenêtre",
        "category": "meubles"
    },
    {
        "id": 69,
        "name": "bureau",
        "category": "meubles"
    },
    {
        "id": 70,
        "name": "toilette",
        "category": "meubles"
    },
    {
        "id": 71,
        "name": "porte",
        "category": "meubles"
    },
    {
        "id": 72,
        "name": "télévision",
        "category": "électronique"
    },
    {
        "id": 73,
        "name": "ordinateur portable",
        "category": "électronique"
    },
    {
        "id": 74,
        "name": "souris",
        "category": "électronique"
    },
    {
        "id": 75,
        "name": "télécommande",
        "category": "électronique"
    },
    {
        "id": 76,
        "name": "clavier",
        "category": "électronique"
    },
    {
        "id": 77,
        "name": "téléphone portable",
        "category": "électronique"
    },
    {
        "id": 78,
        "name": "micro onde",
        "category": "appareil"
    },
    {
        "id": 79,
        "name": "four",
        "category": "appareil"
    },
    {
        "id": 80,
        "name": "grille-pain",
        "category": "appareil"
    },
    {
        "id": 81,
        "name": "évier",
        "category": "appareil"
    },
    {
        "id": 82,
        "name": "réfrigérateur",
        "category": "appareil"
    },
    {
        "id": 83,
        "name": "mixeur",
        "category": "appareil"
    },
    {
        "id": 84,
        "name": "livre",
        "category": "intérieur"
    },
    {
        "id": 85,
        "name": "horloge",
        "category": "intérieur"
    },
    {
        "id": 86,
        "name": "vase",
        "category": "intérieur"
    },
    {
        "id": 87,
        "name": "ciseaux",
        "category": "intérieur"
    },
    {
        "id": 88,
        "name": "ours en peluche",
        "category": "intérieur"
    },
    {
        "id": 89,
        "name": "sèche-cheveux",
        "category": "intérieur"
    },
    {
        "id": 90,
        "name": "brosse à dents",
        "category": "intérieur"
    },
    {
        "id": 91,
        "name": "brosse à cheveux",
        "category": "intérieur"
    }
]
